BSC6926fall2023 - Homework 1 - Solutions
…
(5 pts) Convert the new tibble/dataframe from question 3 into long format for the two SAV metrics and summarize the mean and SD for each taxonomic group in each year. Short answer question 3: What are the years with the highest and lowest cover for seagrass and macroalgae?

dm = d |> 
  pivot_longer(total_seagrass:total_macroalgae, 
               names_to = 'SAV', values_to = 'cover') |> 
  group_by(YEAR, SAV) |> 
  summarize(mean = mean(cover, na.rm = T),
            sd = sd(cover, na.rm = T))
## `summarise()` has grouped output by 'YEAR'. You can override using the
## `.groups` argument.

dm
## # A tibble: 22 × 4
## # Groups:   YEAR [11]
##     YEAR SAV                mean     sd
##    <dbl> <chr>             <dbl>  <dbl>
##  1  2012 total_macroalgae 0.0479 0.0730
##  2  2012 total_seagrass   0.312  0.146 
##  3  2013 total_macroalgae 0.0660 0.121 
##  4  2013 total_seagrass   0.369  0.113 
##  5  2014 total_macroalgae 0.0391 0.0515
##  6  2014 total_seagrass   0.369  0.0695
##  7  2015 total_macroalgae 0.0463 0.0399
##  8  2015 total_seagrass   0.162  0.0561
##  9  2016 total_macroalgae 0.0823 0.0882
## 10  2016 total_seagrass   0.100  0.104 
## # ℹ 12 more rows
…
