BSC6926fall2023 - Homework 2
…
data('and_vertebrates')

df = and_vertebrates |>  
  filter(species == 'Coastal giant salamander',
         reach == 'L') |> 
  group_by(year,sitecode) %>% 
  summarize(Nt = n())

`summarise()` has grouped output by 'year'. You can override using the
`.groups` argument.

df

# A tibble: 54 × 3
# Groups:   year [27]
    year sitecode    Nt
   <dbl> <chr>    <int>
 1  1993 MACKCC-L    54
 2  1993 MACKOG-L    29
 3  1994 MACKCC-L    60
 4  1994 MACKOG-L    56
 5  1995 MACKCC-L    33
 6  1995 MACKOG-L    49
 7  1996 MACKCC-L    36
 8  1996 MACKOG-L    32
 9  1997 MACKCC-L    53
10  1997 MACKOG-L    37
# ℹ 44 more rows
…
Short Essay Question: How do the temporal trends of Coastal giant salamander between the sitecode compare (5 pts)?

Overall the clear cut forest tends to support higher abundance of salamanders than the old growth site. Each populations tends to have fluctuations at similar times, but the old growth populations tends to be more stable. 

Using R, calculate lambda from one year to the next (i.e., for each time step) for the two reach (sitecode) you selected. Try using either a for-loop or functions (1 pt).

df = df %>% 
  group_by(sitecode) %>% 
  mutate(lambda = lead(Nt)/Nt)

df

# A tibble: 54 × 4
# Groups:   sitecode [2]
    year sitecode    Nt lambda
   <dbl> <chr>    <int>  <dbl>
 1  1993 MACKCC-L    54  1.11 
 2  1993 MACKOG-L    29  1.93 
 3  1994 MACKCC-L    60  0.55 
 4  1994 MACKOG-L    56  0.875
 5  1995 MACKCC-L    33  1.09 
 6  1995 MACKOG-L    49  0.653
 7  1996 MACKCC-L    36  1.47 
 8  1996 MACKOG-L    32  1.16 
 9  1997 MACKCC-L    53  0.755
10  1997 MACKOG-L    37  0.865
# ℹ 44 more rows
…
for(i in 1:length(pop$time)){
  if(pop$time[i] != 0){
    if(pop$site[i] == 'MACKCC-L'){
      pop$Nt[i] = pop$Nt[i - 1]  + rdcc*pop$Nt[i - 1]*(1 - pop$Nt[i - 1] / Kcc)
    }else if(pop$site[i] == 'MACKOG-L'){
      pop$Nt[i] = pop$Nt[i - 1]  + rdog*pop$Nt[i - 1]*(1 - pop$Nt[i - 1] / Kog)
    }
  }
}

pop

# A tibble: 302 × 3
    time    Nt site    
   <int> <dbl> <chr>   
 1     0  50   MACKCC-L
 2     1  50.2 MACKCC-L
 3     2  50.5 MACKCC-L
 4     3  50.7 MACKCC-L
 5     4  50.9 MACKCC-L
 6     5  51.1 MACKCC-L
 7     6  51.3 MACKCC-L
 8     7  51.6 MACKCC-L
 9     8  51.8 MACKCC-L
10     9  52.0 MACKCC-L
# ℹ 292 more rows
…
