BSC6926fall2023 - Workshop 5: Density independent models
…
N_0 = 10 #Starting population size
years = 50 #fifty time steps
pop = tibble(time = 0:years,
             Nt = NA)
pop$Nt[pop$time == 0] = N_0
pop
## # A tibble: 51 × 2
##     time    Nt
##    <int> <dbl>
##  1     0    10
##  2     1    NA
##  3     2    NA
##  4     3    NA
##  5     4    NA
##  6     5    NA
##  7     6    NA
##  8     7    NA
##  9     8    NA
## 10     9    NA
## # ℹ 41 more rows

rd = 1.2 #geometric growth factor
K = 900 #carrying capacity

#Discrete logistic model using for loop 
for(i in 2:length(pop$time)){
  pop$Nt[i] = pop$Nt[i - 1]  + rd*pop$Nt[i - 1]*(1 - pop$Nt[i - 1] / K)
}
pop
## # A tibble: 51 × 2
##     time    Nt
##    <int> <dbl>
##  1     0  10  
##  2     1  21.9
##  3     2  47.5
##  4     3 101. 
##  5     4 209. 
##  6     5 402. 
##  7     6 669. 
##  8     7 875. 
##  9     8 904. 
## 10     9 899. 
## # ℹ 41 more rows
…
dlogisticD = function(K, rd, N_0, years) {
  logis = tibble(Nt = NA, time = 0:years)
  logis$Nt[logis$time == 0] = N_0
  
  for(i in 1:(length(logis$time)-1)){
    logis$Nt[i+1] = logis$Nt[i]  + rd*logis$Nt[i]*(1 - logis$Nt[i] / K)
  }
  return(logis)
}

dfx = dlogisticD(K = 900, rd = 1.2, N_0 = 10, years = 50) 

dfx
## # A tibble: 51 × 2
##       Nt  time
##    <dbl> <int>
##  1  10       0
##  2  21.9     1
##  3  47.5     2
##  4 101.      3
##  5 209.      4
##  6 402.      5
##  7 669.      6
##  8 875.      7
##  9 904.      8
## 10 899.      9
## # ℹ 41 more rows
…
Relation between growth rate and density

Based on the above population curves, we can see that population growth (\(\Delta N_t\)) starts out small when both \(t\) and \(N_t\) are small, accelerates as \(N_t\) grows, and then over time, slows down and reaches an asymptote of \(K\).

Using mutate() we can calculate the population growth (\(\Delta N_t\)) and the per capita growth (\(\Delta N_t/N_t\)). The population growth is the \(r_dN_t(1-N_t/K)\) of the equation.

pop.1 = pop %>%
  mutate(lambda = lead(Nt) / Nt, pop.growth = (rd*Nt)*(1 - Nt/K),
         per.capita = pop.growth / Nt)

pop.1
## # A tibble: 51 × 5
##     time    Nt lambda pop.growth per.capita
##    <int> <dbl>  <dbl>      <dbl>      <dbl>
##  1     0  10    2.19       11.9     1.19   
##  2     1  21.9  2.17       25.6     1.17   
##  3     2  47.5  2.14       54.0     1.14   
##  4     3 101.   2.06      108.      1.06   
##  5     4 209.   1.92      193.      0.921  
##  6     5 402.   1.66      267.      0.664  
##  7     6 669.   1.31      206.      0.308  
##  8     7 875.   1.03       29.0     0.0331 
##  9     8 904.   0.994      -5.00   -0.00553
## 10     9 899.   1.00        1.02    0.00114
## # ℹ 41 more rows
…
  for(i in 2:length(popJ$time)){
    
    popJ$Nt[i] = popJ$Nt[i - 1]  + rd*popJ$Nt[i - 1]*(1 - popJ$Nt[i - 1] / K)
  }
  # combine 
  if(j == 1){
    popAll <- popJ 
  }else{
    popAll <- bind_rows(popAll, popJ)
  }
}
popAll
## # A tibble: 315 × 3
##     time    Nt    N0
##    <int> <dbl> <dbl>
##  1     0 1308   1308
##  2     1  715.  1308
##  3     2  862.  1308
##  4     3  898.  1308
##  5     4  900.  1308
##  6     5  900.  1308
##  7     6  900   1308
##  8     7  900   1308
##  9     8  900   1308
## 10     9  900   1308
## # ℹ 305 more rows

This can also be done by using an if statement in the for loop.

# set up tibble to store data
pop3= tibble(time = rep(0:years, times = length(N0s)),
             Nt = NA, N0 = rep(N0s, each = years + 1))
# set N_0 
pop3$Nt[pop3$time == 0] = N0s

for(i in 1:length(pop3$time)){
  if(pop3$time[i] != 0){
    pop3$Nt[i] = pop3$Nt[i - 1]  + rd*pop3$Nt[i - 1]*(1 - pop3$Nt[i - 1] / K)}
}
pop3
## # A tibble: 315 × 3
##     time    Nt    N0
##    <int> <dbl> <dbl>
##  1     0 1308   1308
##  2     1  715.  1308
##  3     2  862.  1308
##  4     3  898.  1308
##  5     4  900.  1308
##  6     5  900.  1308
##  7     6  900   1308
##  8     7  900   1308
##  9     8  900   1308
## 10     9  900   1308
## # ℹ 305 more rows
…
# set up tibble to store data
pop4= tibble(time = rep(0:years, times = length(rds)),
               Nt = NA, rd = rep(rds, each = years + 1))
# set N_0 
pop4$Nt[pop4$time == 0] = N_0

for(i in 1:length(pop4$time)){
  if(pop4$time[i] != 0){
  pop4$Nt[i] = pop4$Nt[i - 1]  + pop4$rd[i]*pop4$Nt[i - 1]*(1 - pop4$Nt[i - 1] / K)}
}
pop4
## # A tibble: 306 × 3
##     time    Nt    rd
##    <int> <dbl> <dbl>
##  1     0  100    1.3
##  2     1  216.   1.3
##  3     2  429.   1.3
##  4     3  721.   1.3
##  5     4  907.   1.3
##  6     5  898.   1.3
##  7     6  901.   1.3
##  8     7  900.   1.3
##  9     8  900.   1.3
## 10     9  900.   1.3
## # ℹ 296 more rows
…
